; Engine configuration file.
; It's best edited using the editor UI and not directly,
; since the parameters that go here are not all obvious.
;
; Format:
;   [section] ; section goes between []
;   param=value ; assign values to parameters

config_version=4

_global_script_classes=[  ]
_global_script_class_icons={

}

[application]

config/name="Sick Person City"
run/main_scene="res://Splashscreen/logo_splash.tscn"
config/icon="res://icon.png"

[autoload]

Global="*res://GLOBAL.tscn"

[display]

window/size/height=720
window/stretch/aspect="keep"

[rendering]

quality/driver/driver_name="GLES2"
vram_compression/import_etc=true
vram_compression/import_etc2=false
quality/filters/msaa=2
environment/default_environment="res://default_env.tres"
