[gd_scene load_steps=4 format=2]

[ext_resource path="res://res/dummy.png" type="Texture" id=1]
[ext_resource path="res://Dummy.gd" type="Script" id=2]

[sub_resource type="CapsuleShape" id=1]
radius = 1.26157
height = 3.25675

[node name="Dummy" type="KinematicBody"]
script = ExtResource( 2 )

[node name="CollisionShape" type="CollisionShape" parent="."]
transform = Transform( 1, 0, 0, 0, -1.62921e-07, -1, 0, 1, -1.62921e-07, 0, 0, 0 )
shape = SubResource( 1 )

[node name="Sprite3D" type="Sprite3D" parent="."]
shaded = true
alpha_cut = 2
texture = ExtResource( 1 )
