[gd_resource type="StyleBoxTexture" load_steps=3 format=2]

[ext_resource path="res://res/button.png" type="Texture" id=1]

[sub_resource type="AtlasTexture" id=1]
flags = 4
atlas = ExtResource( 1 )
region = Rect2( 0, 0, 384, 384 )

[resource]
texture = SubResource( 1 )
region_rect = Rect2( 0, 0, 384, 384 )
